{
    "theme": {
        "background": "#0D1522",
        "foreground": "#a0c7c6",
        "color0": "#0D1522",
        "color1": "#2A5263",
        "color2": "#5F5163",
        "color3": "#9D4258",
        "color4": "#985B61",
        "color5": "#AB7B7B",
        "color6": "#556287",
        "color7": "#a0c7c6",
        "color8": "#708b8a",
        "color9": "#2A5263",
        "color10": "#5F5163",
        "color11": "#9D4258",
        "color12": "#985B61",
        "color13": "#AB7B7B",
        "color14": "#556287",
        "color15": "#a0c7c6",
        "last_separator": ""
    },
    "blocks": {
        "focused_window":
        {
            "background": "color3",
            "foreground": "color0",
            "max_width": 20,
            "roll_interval": 0.3,
            "separator": "\uE0B6"
        },
        "music":
        {
            "background": "color6",
            "foreground": "color0",
            "interface": "cmus",
            "max_width": 20,
            "roll_interval": 0.5,
            "output_format": "icon",
            "separator": "\uE0C7",
            "sep_block": "\u00A6",
            "multiblocks":["icon",
                           "player",
                           "sep_block",
                           "artist",
                           "sep_block",
                           "song",
                           "sep_block",
                           "time_left",
                           "prev",
                           "play",
                           "next",
                           "repeat"]
        },
        "date1":
        {
            "background": "color4",
            "foreground": "color0",
            "separator": "\uE0C7",
            "custom_click1": "/usr/bin/urxvt -e calcurse"
        },
        "battery":
        {
            "path": "/sys/class/power_supply/BAT0/",
            "output_format": "icon",
            "separator": "\uE0C7",
            "idle_background": "foreground",
            "idle_foreground": "background",
            "warning_background": "color4",
            "warning_foreground": "background",
            "critical_background": "foreground",
            "critical_foreground": "background"
        },
        "cpu_usage":
        {
            "background": "color4",
            "foreground": "color0",
            "icon": "\uF0E4 ",
            "time_interval": 1,
            "separator": "\uE0C2"
        },
        "disk_usage":
        {
            "background": "foreground",
            "foreground": "background",
            "icon": "\uF0A0 ",
            "path": "/home",
            "infos": ["left", "size"],
            "sep_block": " / ",
            "time_interval": 100,
            "separator": "\uE0B6"
        },
        "disk_usage2":
        {
            "background": "foreground",
            "foreground": "background",
            "icon": "\uF1C0 ",
            "path": "/",
            "infos": ["left", "size"],
            "sep_block": " / ",
            "time_interval": 10,
            "separator": "\uE0B6"
        },
        "audio":
        {
            "background": "color2",
            "foreground": "color0",
            "separator": "\uE0C7",
            "output_format": "icon",
            "custom_click1": "/usr/bin/pavucontrol",
            "step": 5,
            "driver": "pulseaudio",
            "device_name": "@DEFAULT_SINK@"
        },
        "network":
        {
            "background": "color1",
            "foreground": "color0",
            "interface": "wlp3s0",
            "icon": "\uF1EB",
            "driver": "nmcli",
            "sep_block": " ",
            "infos": ["ip", "connection"],
            "separator": "\uE0C7",
            "custom_click1": "/usr/bin/kcmshell5 kcm_networkmanagement"
        },
        "custom_script":
        {
            "command": "curl wttr.in/\\?format=3",
            "background": "color0",
            "max_width": 20,
            "roll_interval": 0.3,
            "time_interval": 10,
            "foreground": "color8",
            "separator": "\uE0C7"
        }
    }
}
